{
	"author": {
		"email": "ethan.stern@composed.io",
		"name": "Ethan Stern",
		"url": "www.composed.io"
	},
	"bugs": "https://bitbucket.org/composedsystems/composed-lookup-table/issues",
	"description": "A malleable, by-reference, lookup table API with in-placeness optimization and type abilities",
	"devDependencies": {
		"@cs/ci": "^0.9.17"
	},
	"files": [
		"Source"
	],
	"keywords": [
		"LUT",
		"VAT",
		"CVT",
		"dictionary",
		"lookup",
		"look-up",
		"table",
		"malleable"
	],
	"license": "MIT",
	"lvversion": ">=17",
	"name": "@cs/lookup-table",
	"repository": "https://bitbucket.org/composedsystems/composed-lookup-table",
	"version": "0.0.3"
}